日本のバイクと世界のバイクの燃費 - 自己紹介
…
all_bikes %>%
  group_by(年式) %>%
  summarise(平均燃費 = mean(燃費, na.rm = TRUE)) %>%
  arrange(desc(年式))

# A tibble: 44 × 2
    年式 平均燃費
   <dbl>    <dbl>
 1  2025     26.5
 2  2024     35.3
 3  2023     39  
 4  2022     23.8
 5  2021     29.0
 6  2020     32.2
 7  2019     24.3
 8  2018     43.7
 9  2017     39  
10  2016     32.3
# ℹ 34 more rows
…
